ringctr.vcd
$date
	Tue May 18 13:18:43 2021
$end
$version
	Icarus Verilog
$end
$timescale
	1s
$end
$scope module tb_ringctr $end
$var wire 4 ! qn [3:0] $end
$var reg 1 " clk $end
$var reg 4 # q [3:0] $end
$var reg 1 $ reset $end
$scope module DUT $end
$var wire 1 " clk $end
$var wire 4 % q [3:0] $end
$var wire 1 $ reset $end
$var wire 4 & qnbar [3:0] $end
$var wire 4 ' qn [3:0] $end
$scope module D1 $end
$var wire 1 " clk $end
$var wire 1 ( d $end
$var wire 1 $ reset $end
$var reg 1 ) qn $end
$var reg 1 * qnbar $end
$upscope $end
$scope module D2 $end
$var wire 1 " clk $end
$var wire 1 + d $end
$var wire 1 $ reset $end
$var reg 1 , qn $end
$var reg 1 - qnbar $end
$upscope $end
$scope module D3 $end
$var wire 1 " clk $end
$var wire 1 . d $end
$var wire 1 $ reset $end
$var reg 1 / qn $end
$var reg 1 0 qnbar $end
$upscope $end
$scope module D4 $end
$var wire 1 " clk $end
$var wire 1 1 d $end
$var wire 1 $ reset $end
$var reg 1 2 qn $end
$var reg 1 3 qnbar $end
$upscope $end
$upscope $end
$upscope $end
$enddefinitions $end
#0
$dumpvars
13
02
01
10
0/
0.
1-
0,
0+
1*
0)
1(
b0 '
b1111 &
b1 %
0$
b1 #
0"
b0 !
$end
#5
1$
b1111 &
1*
b0 !
b0 '
0)
1"
#10
0"
#15
0(
1+
b1000 #
b1000 %
b111 &
0*
b1000 !
b1000 '
1)
1"
#20
0"
#25
1*
0)
b1011 &
0-
b100 !
b100 '
1,
1"
#30
0"
#35
0+
1.
b100 #
b100 %
1"
#40
0"
#45
1-
0,
b1101 &
00
b10 !
b10 '
1/
1"
#50
0"
#55
1(
0.
11
b10 #
b10 %
1"
#60
0"
#65
0*
1)
10
0/
b110 &
03
b1001 !
b1001 '
12
1"
#70
0"
#75
1+
01
b1001 #
b1001 %
1"
#80
0"
#85
0-
1,
b11 &
13
b1100 !
b1100 '
02
1"
#90
0"
#95
0(
1.
b1100 #
b1100 %
1"
#100
0"
#105
1*
0)
b1001 &
00
b110 !
b110 '
1/
1"
#110
0"
#115
1(
0+
11
b110 #
b110 %
1"
#120
0"
#125
0*
1)
1-
0,
b100 &
03
b1011 !
b1011 '
12
1"
#130
0"
#135
0(
1+
0.
b1011 #
b1011 %
1"
#140
0"
#145
1*
0)
0-
1,
b1010 &
10
b101 !
b101 '
0/
1"
#150
0"
#155
1(
0+
1.
01
b101 #
b101 %
1"
#160
0"
#165
0*
1)
1-
0,
00
1/
b101 &
13
b1010 !
b1010 '
02
1"
#170
0"
#175
1+
0.
11
b1010 #
b1010 %
1"
#180
0"
#185
0-
1,
10
0/
b10 &
03
b1101 !
b1101 '
12
1"
#190
0"
#195
1.
01
b1101 #
b1101 %
1"
#200
0"
#205
00
1/
b1 &
13
b1110 !
b1110 '
02
1"
#210
0"
#215
11
b1110 #
b1110 %
1"
#220
0"
#225
b0 &
03
b1111 !
b1111 '
12
1"
#230
0"
#235
0(
b1111 #
b1111 %
1"
#240
0"
#245
b1000 &
1*
b111 !
b111 '
0)
1"
#250
0"
#255
0+
b111 #
b111 %
1"
#260
0"
#265
b1100 &
1-
b11 !
b11 '
0,
1"
#270
0"
#275
0.
b11 #
b11 %
1"
#280
0"
#285
b1110 &
10
b1 !
b1 '
0/
1"
#290
0"
#295
1(
01
b1 #
b1 %
1"
#300
0"
#305
0*
1)
b111 &
13
b1000 !
b1000 '
02
1"
